{
  "apps": [
    {
    "serverURL": "https://lobemusic.herokuapp.com/parse",
    "appId": "DlIbcE0Xiy5upPCDpZXneHfAD76lDBiGvwcT51ee",
    "masterKey": "Xlbt9tGnTBhgywUn6h8RsqmrkckndKCqnLadyI7l",
    "appName": "lobemusic",
      "production": true
    },
    {
    "serverURL": "https://api.parse.com/1",
    "appId": "DlIbcE0Xiy5upPCDpZXneHfAD76lDBiGvwcT51ee",
    "masterKey": "Xlbt9tGnTBhgywUn6h8RsqmrkckndKCqnLadyI7l",
    "appName": "lobe"
    }
  ],
  "users": [
    {
      "user":"lobeadmin",
      "pass":"lobelive"
    }
  ]
}